{
  "auditReportVersion": 2,
  "vulnerabilities": {
    "json5": {
      "name": "json5",
      "severity": "high",
      "isDirect": true,
      "via": [
        {
          "source": 1091147,
          "name": "json5",
          "dependency": "json5",
          "title": "Prototype Pollution in JSON5 via Parse Method",
          "url": "https://github.com/advisories/GHSA-9c47-m6qq-7p4h",
          "severity": "high",
          "cwe": [
            "CWE-1321"
          ],
          "cvss": {
            "score": 7.1,
            "vectorString": "CVSS:3.1/AV:N/AC:H/PR:L/UI:N/S:U/C:H/I:L/A:H"
          },
          "range": "<1.0.2"
        }
      ],
      "effects": [],
      "range": "<1.0.2",
      "nodes": [
        "node_modules/json5"
      ],
      "fixAvailable": {
        "name": "json5",
        "version": "1.0.2",
        "isSemVerMajor": false
      }
    }
  },
  "metadata": {
    "vulnerabilities": {
      "info": 0,
      "low": 0,
      "moderate": 0,
      "high": 1,
      "critical": 0,
      "total": 1
    },
    "dependencies": {
      "prod": 1140,
      "dev": 402,
      "optional": 52,
      "peer": 1,
      "peerOptional": 0,
      "total": 1581
    }
  }
}
